Iphone-1-2-096
Iphone-0-1-166
Iphone-1-1-145
Iphone-0-0-057
Iphone-1-2-052
Iphone-0-2-073
Iphone-0-1-193
Iphone-0-1-191
Iphone-0-2-231
Iphone-1-2-216
Iphone-1-2-100
Iphone-1-2-229
Iphone-1-1-098
Iphone-0-1-161
Iphone-0-0-199
Iphone-0-1-181
Iphone-1-1-223
Iphone-0-0-211
Iphone-1-1-215
Iphone-0-0-066
Iphone-0-1-210
Iphone-1-2-075
Iphone-0-1-215
Iphone-0-2-209
Iphone-0-1-245
Iphone-0-0-156
Iphone-1-1-154
Iphone-0-0-010
Iphone-1-1-162
Iphone-0-2-171
Iphone-0-1-203
Iphone-0-0-187
Iphone-1-1-167
Iphone-0-2-074
Iphone-1-0-070
Iphone-0-2-115
Iphone-1-0-238
Iphone-1-1-155
Iphone-0-2-204
Iphone-1-2-139
Iphone-0-1-095
Iphone-1-2-082
Iphone-0-2-191
Iphone-1-0-215
Iphone-1-2-233
Iphone-0-1-169
Iphone-1-2-113
Iphone-1-1-068
Iphone-0-2-148
Iphone-1-0-182
Iphone-1-1-201
Iphone-1-2-174
Iphone-0-1-081
Iphone-1-2-230
Iphone-1-0-161
Iphone-0-0-147
Iphone-0-1-053
Iphone-0-2-157
Iphone-0-2-161
Iphone-0-2-110
Iphone-0-0-226
Iphone-0-2-218
Iphone-1-0-146
Iphone-0-2-085
Iphone-0-2-084
Iphone-0-1-142
Iphone-0-1-178
Iphone-0-1-094
Iphone-1-1-208
Iphone-1-1-121
Iphone-1-0-229
Iphone-0-2-198
Iphone-0-0-113
Iphone-0-1-114
Iphone-1-1-057
Iphone-0-2-167
Iphone-1-0-184
Iphone-1-0-115
Iphone-1-0-249
Iphone-0-0-105
Iphone-1-0-006
Iphone-0-1-106
Iphone-1-1-158
Iphone-0-0-218
Iphone-1-0-141
Iphone-0-1-206
Iphone-1-2-172
Iphone-1-2-051
Iphone-1-2-202
Iphone-0-1-072
Iphone-1-2-149
Iphone-1-1-136
Iphone-0-2-137
Iphone-0-1-228
Iphone-1-1-127
Iphone-0-0-072
Iphone-0-2-154
Iphone-0-1-160
Iphone-1-1-236
Iphone-0-0-153
Iphone-1-0-173
Iphone-1-1-204
Iphone-0-2-123
Iphone-1-2-056
Iphone-0-0-140
Iphone-1-1-182
Iphone-0-1-137
Iphone-0-0-071
Iphone-0-2-057
Iphone-0-0-131
Iphone-0-0-207
Iphone-0-0-245
Iphone-0-2-170
Iphone-0-0-183
Iphone-0-2-064
Iphone-0-0-060
Iphone-1-1-108
Iphone-1-2-003
Iphone-0-2-200
Iphone-1-2-169
Iphone-1-2-118
Iphone-1-2-098
Iphone-0-0-167
Iphone-1-2-053
Iphone-0-1-123
Iphone-1-2-068
Iphone-1-0-058
Iphone-1-2-140
Iphone-1-2-168
Iphone-1-1-069
Iphone-0-1-232
Iphone-0-0-250
Iphone-0-1-091
Iphone-0-1-163
Iphone-1-0-187
Iphone-0-2-175
Iphone-0-1-192
Iphone-0-0-216
Iphone-1-0-165
Iphone-1-1-189
Iphone-1-2-190
Iphone-0-0-081
Iphone-0-2-182
Iphone-1-0-228
Iphone-1-2-249
Iphone-1-2-112
Iphone-1-2-131
Iphone-0-2-096
Iphone-0-2-155
Iphone-0-1-177
Iphone-0-2-177
Iphone-1-1-114
Iphone-1-2-132
Iphone-0-0-082
Iphone-0-0-123
Iphone-1-2-167
Iphone-0-1-170
Iphone-1-2-161
Iphone-1-2-197
Iphone-0-1-116
Iphone-1-1-247
Iphone-0-1-229
Iphone-1-0-237
Iphone-0-1-133
Iphone-1-2-086
Iphone-0-0-222
Iphone-1-2-074
Iphone-1-0-169
Iphone-0-2-121
Iphone-0-2-193
Iphone-0-0-089
Iphone-1-2-198
Iphone-0-2-241
Iphone-0-2-168
Iphone-0-1-146
Iphone-1-0-072
Iphone-1-1-185
Iphone-1-1-178
Iphone-1-2-147
Iphone-1-0-133
Iphone-0-1-071
Iphone-0-0-065
Iphone-1-2-154
Iphone-0-1-149
Iphone-0-0-246
Iphone-0-2-055
Iphone-1-2-144
Iphone-1-1-216
Iphone-0-0-198
Iphone-1-1-212
Iphone-0-2-223
Iphone-0-1-195
Iphone-0-2-185
Iphone-0-1-075
Iphone-1-1-004
Iphone-1-1-233
Iphone-1-2-083
Iphone-0-1-057
Iphone-1-2-163
Iphone-0-2-083
Iphone-0-0-184
Iphone-0-1-117
Iphone-0-2-113
Iphone-0-2-211
Iphone-0-1-233
Iphone-0-1-147
Iphone-0-2-086
Iphone-1-2-155
Iphone-1-1-220
Iphone-0-2-124
Iphone-1-2-173
Iphone-0-0-109
Iphone-0-1-211
Iphone-1-2-162
Iphone-0-2-158
Iphone-0-1-098
Iphone-0-0-159
Iphone-1-0-236
Iphone-1-2-061
Iphone-0-2-160
Iphone-0-1-222
Iphone-0-2-091
Iphone-1-1-237
Iphone-1-2-127
Iphone-0-1-103
Iphone-0-2-117
Iphone-1-1-107
Iphone-1-0-230
Iphone-0-2-062
Iphone-0-1-172
Iphone-1-0-130
Iphone-0-1-175
Iphone-1-1-052
Iphone-1-0-211
Iphone-1-2-170
Iphone-1-0-196
Iphone-1-2-101
Iphone-0-1-124
Iphone-0-0-166
Iphone-0-0-145
Iphone-1-1-193
Iphone-1-0-181
Iphone-0-1-077
Iphone-0-2-082
Iphone-0-0-118
Iphone-0-1-061
Iphone-0-2-144
Iphone-0-2-114
Iphone-1-1-190
Iphone-1-1-149
Iphone-1-0-088
Iphone-0-0-152
Iphone-0-1-126
Iphone-1-2-005
Iphone-0-1-069
Iphone-1-2-234
Iphone-0-0-074
Iphone-0-2-053
Iphone-1-2-142
Iphone-0-0-241
Iphone-1-1-005
Iphone-1-0-097
Iphone-0-2-245
Iphone-1-2-124
Iphone-0-2-051
Iphone-1-0-054
Iphone-1-1-093
Iphone-1-1-126
Iphone-1-0-096
Iphone-0-0-008
Iphone-1-2-151
Iphone-1-0-205
Iphone-1-2-156
Iphone-1-1-229
Iphone-1-0-172
Iphone-0-1-226
Iphone-0-0-157
Iphone-0-0-111
Iphone-0-2-162
Iphone-1-2-120
Iphone-0-2-227
Iphone-0-1-065
Iphone-0-0-005
Iphone-0-0-208
Iphone-1-2-114
Iphone-1-1-200
Iphone-1-2-136
Iphone-1-2-180
Iphone-0-1-151
Iphone-0-1-156
Iphone-0-1-242
Iphone-0-0-146
Iphone-0-2-186
Iphone-0-2-221
Iphone-1-2-121
Iphone-1-2-010
Iphone-1-0-160
Iphone-1-0-243
Iphone-0-2-235
Iphone-1-1-084
Iphone-1-0-131
Iphone-0-1-078
Iphone-0-0-217
Iphone-0-1-190
Iphone-0-1-208
Iphone-0-0-185
Iphone-1-2-077
Iphone-1-1-070
Iphone-1-0-132
Iphone-1-1-188
Iphone-0-2-075
Iphone-1-2-221
Iphone-1-2-064
Iphone-0-2-078
Iphone-0-1-204
Iphone-1-0-250
Iphone-0-1-243
Iphone-1-0-079
Iphone-1-2-181
Iphone-0-1-250
Iphone-0-1-154
Iphone-1-2-137
Iphone-1-0-051
Iphone-0-2-090
Iphone-1-0-239
Iphone-1-1-143
Iphone-1-1-199
Iphone-1-0-120
Iphone-1-2-111
Iphone-1-2-090
Iphone-0-2-226
Iphone-0-1-221
Iphone-0-0-070
Iphone-0-0-062
Iphone-1-1-244
Iphone-0-2-216
Iphone-1-0-127
Iphone-0-0-130
Iphone-1-2-248
Iphone-1-2-199
Iphone-0-0-180
Iphone-0-0-235
Iphone-1-0-190
Iphone-1-2-236
Iphone-0-2-097
Iphone-0-2-219
Iphone-1-2-207
Iphone-0-0-150
Iphone-1-2-206
Iphone-1-2-214
Iphone-0-2-199
Iphone-0-1-101
Iphone-1-1-156
Iphone-1-1-065
Iphone-1-2-220
Iphone-0-0-232
Iphone-0-2-103
Iphone-1-0-085
Iphone-0-1-134
Iphone-1-0-106
Iphone-0-1-105
Iphone-1-1-080
Iphone-0-2-127
Iphone-1-1-172
Iphone-1-0-157
Iphone-0-1-056
Iphone-1-2-211
Iphone-1-1-133
Iphone-0-0-052
Iphone-0-0-221
Iphone-0-2-141
Iphone-1-2-250
Iphone-1-0-221
Iphone-1-0-053
Iphone-0-1-176
Iphone-0-0-219
Iphone-0-1-241
Iphone-1-1-160
Iphone-1-0-206
Iphone-0-0-067
Iphone-0-0-233
Iphone-1-0-113
Iphone-0-0-122
Iphone-0-2-061
Iphone-0-2-234
Iphone-0-0-098
Iphone-1-2-193
Iphone-1-1-054
Iphone-1-0-124
Iphone-1-1-177
Iphone-0-0-148
Iphone-0-0-213
Iphone-1-0-179
Iphone-0-2-126
Iphone-1-0-148
Iphone-1-1-205
Iphone-1-1-159
Iphone-0-1-223
Iphone-1-2-188
Iphone-0-1-165
Iphone-0-1-085
Iphone-1-0-240
Iphone-1-0-125
Iphone-1-2-176
Iphone-1-2-158
Iphone-0-1-246
Iphone-1-0-094
Iphone-0-2-238
Iphone-0-2-120
Iphone-0-2-098
Iphone-0-0-102
Iphone-1-1-186
Iphone-1-2-080
Iphone-1-2-065
Iphone-1-1-079
Iphone-0-1-132
Iphone-0-0-193
Iphone-0-1-155
Iphone-1-1-191
Iphone-1-2-244
Iphone-0-1-068
Iphone-1-1-007
Iphone-1-1-152
Iphone-1-0-219
Iphone-0-0-190
Iphone-1-2-134
Iphone-0-1-122
Iphone-0-1-067
Iphone-1-0-209
Iphone-0-0-225
Iphone-1-1-097
Iphone-0-1-150
Iphone-0-0-126
Iphone-1-0-201
Iphone-0-2-122
Iphone-0-0-141
Iphone-1-1-110
Iphone-1-1-203
Iphone-1-2-238
Iphone-0-2-109
Iphone-0-1-058
Iphone-0-2-224
Iphone-0-0-116
Iphone-0-2-183
Iphone-0-1-083
Iphone-0-2-159
Iphone-1-1-006
Iphone-0-2-070
Iphone-1-2-103
Iphone-1-0-129
Iphone-1-1-198
Iphone-0-2-112
Iphone-0-0-142
Iphone-0-0-094
Iphone-0-0-238
Iphone-1-0-189
Iphone-0-1-115
Iphone-0-0-229
Iphone-0-0-009
Iphone-0-0-096
Iphone-0-0-056
Iphone-1-1-111
Iphone-0-1-217
Iphone-0-0-063
Iphone-1-2-081
Iphone-1-2-072
Iphone-1-2-069
Iphone-0-1-131
Iphone-0-1-171
Iphone-1-2-240
Iphone-0-0-108
Iphone-0-1-194
Iphone-1-1-142
Iphone-1-1-061
Iphone-0-0-136
Iphone-0-1-184
Iphone-1-2-129
Iphone-1-2-091
Iphone-1-1-073
Iphone-0-2-102
Iphone-0-2-149
Iphone-0-2-207
Iphone-1-0-233
Iphone-0-2-169
Iphone-0-0-099
Iphone-1-0-086
Iphone-0-0-231
Iphone-0-2-178
Iphone-1-1-161
Iphone-0-1-212
Iphone-1-2-088
Iphone-0-0-058
Iphone-0-2-006
Iphone-0-0-158
Iphone-1-0-242
Iphone-0-2-104
Iphone-1-1-148
Iphone-0-1-121
Iphone-0-2-060
Iphone-1-2-186
Iphone-1-0-174
Iphone-1-0-142
Iphone-0-0-138
Iphone-0-1-183
Iphone-0-2-095
Iphone-0-0-128
Iphone-1-1-240
Iphone-0-0-175
Iphone-0-1-197
Iphone-1-0-069
Iphone-1-0-123
Iphone-0-0-155
Iphone-1-2-222
Iphone-1-0-060
Iphone-1-2-135
Iphone-1-2-219
Iphone-0-0-004
Iphone-1-0-167
Iphone-1-1-214
Iphone-0-2-174
Iphone-0-2-005
Iphone-1-0-223
Iphone-0-0-171
Iphone-0-1-113
Iphone-1-2-171
Iphone-0-1-090
Iphone-1-2-059
Iphone-0-2-081
Iphone-1-1-206
Iphone-0-1-238
Iphone-0-0-124
Iphone-1-2-231
Iphone-1-2-093
Iphone-1-1-226
Iphone-1-0-235
Iphone-0-0-173
Iphone-0-0-110
Iphone-0-2-197
Iphone-1-2-164
Iphone-0-2-118
Iphone-0-2-072
Iphone-1-1-173
Iphone-1-2-160
Iphone-1-0-155
Iphone-0-0-160
Iphone-1-1-064
Iphone-0-1-002
Iphone-1-1-120
Iphone-1-0-194
Iphone-0-2-215
Iphone-0-0-177
Iphone-1-1-083
Iphone-0-0-230
Iphone-1-1-192
Iphone-0-2-054
Iphone-1-1-137
Iphone-1-1-113
Iphone-1-1-009
Iphone-1-0-056
Iphone-0-2-229
Iphone-0-2-009
Iphone-1-0-084
Iphone-1-2-204
Iphone-1-0-227
Iphone-0-1-108
Iphone-0-0-165
Iphone-1-2-210
Iphone-1-1-194
Iphone-0-1-004
Iphone-1-2-110
Iphone-1-1-117
Iphone-1-0-217
Iphone-0-1-062
Iphone-0-0-192
Iphone-0-1-059
Iphone-0-1-224
Iphone-1-0-170
Iphone-0-1-054
Iphone-1-0-110
Iphone-0-1-139
Iphone-1-2-122
Iphone-0-0-121
Iphone-1-2-084
Iphone-0-2-140
Iphone-0-1-188
Iphone-1-2-066
Iphone-1-2-125
Iphone-1-2-201
Iphone-1-2-191
Iphone-1-2-237
Iphone-1-1-139
Iphone-1-0-082
Iphone-0-0-076
Iphone-0-1-110
Iphone-0-1-097
Iphone-0-1-164
Iphone-1-2-070
Iphone-1-0-166
Iphone-1-1-144
Iphone-0-0-204
Iphone-0-2-089
Iphone-1-1-165
Iphone-0-0-168
Iphone-1-0-076
Iphone-0-2-230
Iphone-0-1-174
Iphone-0-0-006
Iphone-0-1-231
Iphone-1-2-057
Iphone-1-2-175
Iphone-1-1-164
Iphone-1-2-126
Iphone-1-0-095
Iphone-0-2-237
Iphone-1-0-083
Iphone-1-0-118
Iphone-1-2-192
Iphone-1-1-235
Iphone-0-0-084
Iphone-0-0-051
Iphone-1-0-136
Iphone-0-0-174
Iphone-1-1-211
Iphone-0-0-186
Iphone-0-2-068
Iphone-1-1-060
Iphone-1-1-089
Iphone-0-1-060
Iphone-0-2-139
Iphone-1-0-087
Iphone-1-1-078
Iphone-1-2-246
Iphone-0-2-222
Iphone-0-0-176
Iphone-1-2-115
Iphone-0-1-179
Iphone-1-2-224
Iphone-1-0-149
Iphone-1-1-243
Iphone-1-0-003
Iphone-0-0-212
Iphone-1-2-153
Iphone-0-1-157
Iphone-0-0-205
Iphone-1-0-150
Iphone-0-0-135
Iphone-0-1-219
Iphone-0-1-135
Iphone-0-1-144
Iphone-1-0-126
Iphone-1-0-073
Iphone-1-1-249
Iphone-0-1-119
Iphone-1-1-066
Iphone-0-0-179
Iphone-0-1-247
Iphone-0-0-209
Iphone-1-2-159
Iphone-0-2-008
Iphone-1-2-225
Iphone-1-1-118
Iphone-1-0-164
Iphone-1-1-174
Iphone-0-0-197
Iphone-0-1-112
Iphone-1-0-093
Iphone-0-1-093
Iphone-1-0-119
Iphone-1-2-123
Iphone-0-2-105
Iphone-1-1-169
Iphone-0-1-099
Iphone-0-0-139
Iphone-1-2-007
Iphone-1-1-245
Iphone-0-1-237
Iphone-0-1-080
Iphone-1-0-121
Iphone-0-2-188
Iphone-1-0-105
Iphone-0-0-243
Iphone-0-1-129
Iphone-1-1-157
Iphone-0-0-091
Iphone-0-2-203
Iphone-0-1-227
Iphone-1-2-143
Iphone-1-0-192
Iphone-1-2-094
Iphone-1-1-138
Iphone-1-1-150
Iphone-0-2-217
Iphone-1-0-207
Iphone-1-0-067
Iphone-1-2-166
Iphone-0-2-080
Iphone-0-1-064
Iphone-1-0-061
Iphone-1-0-004
Iphone-1-0-092
Iphone-1-0-200
Iphone-0-2-138
Iphone-1-1-163
Iphone-1-0-204
Iphone-1-2-078
Iphone-0-1-248
Iphone-0-0-085
Iphone-0-2-069
Iphone-1-1-074
Iphone-1-1-128
Iphone-1-1-179
Iphone-0-2-065
Iphone-1-1-239
Iphone-1-2-087
Iphone-1-0-176
Iphone-0-2-106
Iphone-1-2-106
Iphone-0-2-240
Iphone-0-0-181
Iphone-0-2-063
Iphone-0-2-151
Iphone-0-2-128
Iphone-0-0-234
Iphone-1-2-179
Iphone-0-2-101
Iphone-0-1-236
Iphone-1-1-076
Iphone-0-1-214
Iphone-0-2-249
Iphone-1-1-151
Iphone-1-1-085
Iphone-0-2-194
Iphone-0-0-194
Iphone-1-2-239
Iphone-0-1-141
Iphone-1-0-168
Iphone-1-2-006
Iphone-0-0-188
Iphone-0-0-191
Iphone-1-0-175
Iphone-1-0-154
Iphone-0-2-129
Iphone-1-0-208
Iphone-1-0-090
Iphone-0-0-092
Iphone-0-2-196
Iphone-0-1-218
Iphone-0-1-244
Iphone-0-2-206
Iphone-0-0-161
Iphone-1-2-067
Iphone-1-1-135
Iphone-0-1-196
Iphone-1-1-124
Iphone-1-1-010
Iphone-1-0-108
Iphone-1-2-054
Iphone-0-1-128
Iphone-1-1-109
Iphone-0-2-056
Iphone-0-1-051
Iphone-0-1-107
Iphone-0-1-213
Iphone-0-2-076
Iphone-1-1-140
Iphone-0-0-178
Iphone-1-1-075
Iphone-0-0-201
Iphone-0-1-200
Iphone-0-0-073
Iphone-0-1-100
Iphone-0-0-080
Iphone-0-2-232
Iphone-1-2-150
Iphone-0-0-220
Iphone-0-0-054
Iphone-1-0-140
Iphone-1-2-217
Iphone-1-2-208
Iphone-1-2-104
Iphone-1-0-198
Iphone-0-0-079
Iphone-1-1-104
Iphone-1-0-210
Iphone-0-2-205
Iphone-1-1-131
Iphone-1-0-122
Iphone-0-2-125
Iphone-1-0-055
Iphone-1-0-062
Iphone-1-0-114
Iphone-0-2-143
Iphone-1-2-058
Iphone-0-1-182
Iphone-0-2-247
Iphone-0-1-089
Iphone-0-2-132
Iphone-0-0-095
Iphone-1-0-145
Iphone-1-1-063
Iphone-0-0-237
Iphone-0-0-088
Iphone-1-1-077
Iphone-1-0-007
Iphone-1-1-153
Iphone-1-0-080
Iphone-1-1-001
Iphone-0-0-154
Iphone-0-2-250
Iphone-1-2-116
Iphone-0-1-063
Iphone-0-0-086
Iphone-1-0-138
Iphone-0-0-144
Iphone-0-0-007
Iphone-1-1-171
Iphone-0-2-220
Iphone-0-0-078
Iphone-1-0-193
Iphone-1-0-234
Iphone-0-2-187
Iphone-0-1-125
Iphone-1-2-009
Iphone-0-0-189
Iphone-1-1-072
Iphone-0-0-224
Iphone-0-1-079
Iphone-1-0-057
Iphone-0-2-007
Iphone-0-1-073
Iphone-1-1-122
Iphone-1-1-219
Iphone-1-0-202
Iphone-0-0-106
Iphone-1-2-227
Iphone-1-1-099
Iphone-1-1-175
Iphone-0-2-150
Iphone-0-0-214
Iphone-0-0-240
Iphone-1-2-085
Iphone-0-0-149
Iphone-1-1-210
Iphone-0-0-059
Iphone-0-0-163
Iphone-1-0-107
Iphone-0-0-203
Iphone-0-2-131
Iphone-0-1-111
Iphone-1-1-218
Iphone-1-2-145
Iphone-0-0-239
Iphone-0-0-003
Iphone-1-1-092
Iphone-0-1-159
Iphone-1-1-250
Iphone-1-0-009
Iphone-1-1-221
Iphone-0-1-003
Iphone-1-0-248
Iphone-0-2-165
Iphone-1-1-008
Iphone-0-1-087
Iphone-0-1-240
Iphone-0-2-202
Iphone-1-0-188
Iphone-1-0-180
Iphone-0-2-172
Iphone-1-1-224
Iphone-0-1-052
Iphone-0-1-140
Iphone-0-0-172
Iphone-1-0-117
Iphone-1-2-209
Iphone-0-0-083
Iphone-1-0-066
Iphone-1-1-132
Iphone-0-1-198
Iphone-0-0-114
Iphone-0-1-001
Iphone-1-0-078
Iphone-1-2-097
Iphone-1-1-096
Iphone-1-1-062
Iphone-1-2-130
Iphone-0-1-055
Iphone-0-1-127
Iphone-1-2-226
Iphone-0-0-236
Iphone-1-1-181
Iphone-1-1-176
Iphone-0-0-120
Iphone-0-1-167
Iphone-0-0-169
Iphone-1-2-242
Iphone-0-1-005
Iphone-0-2-136
Iphone-0-1-153
Iphone-1-2-141
Iphone-1-0-052
Iphone-1-1-242
Iphone-1-2-128
Iphone-1-2-073
Iphone-0-0-196
Iphone-1-1-225
Iphone-1-0-203
Iphone-1-1-123
Iphone-1-2-008
Iphone-1-0-137
Iphone-0-0-001
Iphone-1-1-055
Iphone-0-1-152
Iphone-0-2-164
Iphone-1-1-112
Iphone-1-2-102
Iphone-0-1-066
Iphone-1-1-147
Iphone-0-0-107
Iphone-1-0-191
Iphone-1-2-241
Iphone-0-2-243
Iphone-0-0-061
Iphone-1-2-002
Iphone-1-1-246
Iphone-1-0-008
Iphone-1-2-178
Iphone-0-2-002
Iphone-1-2-146
Iphone-1-1-094
Iphone-1-2-203
Iphone-1-0-218
Iphone-0-2-166
Iphone-0-0-064
Iphone-1-2-215
Iphone-0-0-097
Iphone-1-1-232
Iphone-0-1-249
Iphone-0-0-129
Iphone-1-1-090
Iphone-1-0-103
Iphone-1-1-238
Iphone-1-1-103
Iphone-1-2-089
Iphone-0-0-170
Iphone-0-2-099
Iphone-1-1-051
Iphone-1-2-218
Iphone-0-1-006
Iphone-1-0-220
Iphone-1-0-098
Iphone-0-1-186
Iphone-0-2-195
Iphone-0-0-228
Iphone-1-2-152
Iphone-1-2-076
Iphone-1-0-089
Iphone-0-0-143
Iphone-1-2-212
Iphone-1-1-141
Iphone-0-1-199
Iphone-0-2-156
Iphone-0-1-207
Iphone-1-1-213
Iphone-1-1-091
Iphone-1-1-217
Iphone-0-2-108
Iphone-0-1-118
Iphone-0-0-215
Iphone-0-0-206
Iphone-1-1-102
Iphone-1-0-063
Iphone-1-2-205
Iphone-1-2-095
Iphone-1-0-158
Iphone-0-2-010
Iphone-1-2-060
Iphone-1-0-128
Iphone-0-1-158
Iphone-0-2-079
Iphone-1-1-056
Iphone-1-2-245
Iphone-1-0-226
Iphone-0-2-152
Iphone-0-0-055
Iphone-0-1-220
Iphone-1-0-135
Iphone-1-0-111
Iphone-1-1-130
Iphone-1-1-119
Iphone-0-0-127
Iphone-0-1-074
Iphone-0-1-104
Iphone-0-1-143
Iphone-1-0-112
Iphone-0-2-058
Iphone-0-2-093
Iphone-1-1-248
Iphone-1-0-147
Iphone-1-1-106
Iphone-0-2-142
Iphone-1-0-178
Iphone-1-1-241
Iphone-0-0-112
Iphone-1-1-129
Iphone-0-0-137
Iphone-0-1-009
Iphone-1-0-225
Iphone-1-0-162
Iphone-1-1-086
Iphone-1-2-177
Iphone-1-0-247
Iphone-1-0-231
Iphone-1-0-213
Iphone-0-2-173
Iphone-1-0-144
Iphone-1-1-228
Iphone-0-2-067
Iphone-1-1-081
Iphone-0-1-235
Iphone-1-0-059
Iphone-1-2-099
Iphone-1-1-100
Iphone-1-0-077
Iphone-1-2-105
Iphone-1-0-216
Iphone-0-1-209
Iphone-0-1-180
Iphone-1-2-001
Iphone-1-0-153
Iphone-1-2-092
Iphone-1-0-183
Iphone-1-2-108
Iphone-0-2-192
Iphone-0-2-004
Iphone-1-0-156
Iphone-0-2-176
Iphone-0-1-136
Iphone-1-2-071
Iphone-1-1-059
Iphone-1-1-207
Iphone-1-2-200
Iphone-0-2-119
Iphone-0-2-153
Iphone-0-1-086
Iphone-0-0-162
Iphone-0-2-225
Iphone-0-1-109
Iphone-1-1-187
Iphone-0-0-104
Iphone-0-1-082
Iphone-1-0-185
Iphone-1-0-171
Iphone-1-2-228
Iphone-1-0-245
Iphone-1-1-234
Iphone-1-2-133
Iphone-0-0-182
Iphone-1-2-148
Iphone-0-0-002
Iphone-1-2-247
Iphone-0-2-233
Iphone-0-0-087
Iphone-1-1-195
Iphone-1-2-187
Iphone-1-0-102
Iphone-1-0-005
Iphone-0-1-239
Iphone-0-1-234
Iphone-0-2-111
Iphone-1-0-109
Iphone-0-2-180
Iphone-1-1-168
Iphone-1-0-101
Iphone-0-1-096
Iphone-0-2-135
Iphone-1-0-241
Iphone-0-2-239
Iphone-1-2-165
Iphone-0-0-133
Iphone-0-0-069
Iphone-0-1-216
Iphone-1-2-107
Iphone-0-2-179
Iphone-1-0-100
Iphone-1-2-184
Iphone-1-0-081
Iphone-1-0-244
Iphone-1-1-196
Iphone-0-2-210
Iphone-0-1-202
Iphone-1-1-088
Iphone-1-1-231
Iphone-1-0-116
Iphone-1-0-197
Iphone-0-2-212
Iphone-0-1-173
Iphone-0-2-189
Iphone-0-2-107
Iphone-0-1-230
Iphone-1-1-180
Iphone-1-0-159
Iphone-1-1-183
Iphone-1-2-055
Iphone-0-0-164
Iphone-1-1-166
Iphone-1-1-222
Iphone-0-0-093
Iphone-0-1-185
Iphone-0-2-134
Iphone-1-2-235
Iphone-0-2-244
Iphone-1-2-189
Iphone-1-0-065
Iphone-0-2-088
Iphone-0-0-068
Iphone-1-1-002
Iphone-0-0-151
Iphone-0-0-103
Iphone-0-1-201
Iphone-1-2-195
Iphone-0-0-101
Iphone-0-2-133
Iphone-1-0-002
Iphone-1-2-157
Iphone-0-0-242
Iphone-1-2-196
Iphone-1-0-246
Iphone-0-0-134
Iphone-1-2-079
Iphone-0-2-071
Iphone-1-0-214
Iphone-1-2-194
Iphone-1-0-199
Iphone-1-0-074
Iphone-1-0-091
Iphone-0-2-201
Iphone-1-2-183
Iphone-1-1-202
Iphone-1-0-224
Iphone-1-0-068
Iphone-0-2-130
Iphone-0-1-205
Iphone-0-0-119
Iphone-1-2-062
Iphone-0-2-248
Iphone-0-2-145
Iphone-0-2-066
Iphone-0-0-075
Iphone-0-0-202
Iphone-1-0-075
Iphone-0-2-059
Iphone-0-2-246
Iphone-0-0-200
Iphone-0-1-120
Iphone-1-0-139
Iphone-0-0-115
Iphone-1-1-067
Iphone-1-2-117
Iphone-0-1-187
Iphone-0-2-077
Iphone-1-1-082
Iphone-0-2-228
Iphone-1-2-223
Iphone-0-1-189
Iphone-0-1-088
Iphone-1-0-104
Iphone-0-2-094
Iphone-0-1-092
Iphone-1-2-182
Iphone-1-0-186
Iphone-1-1-095
Iphone-0-0-210
Iphone-0-0-248
Iphone-0-1-168
Iphone-0-2-116
Iphone-0-2-163
Iphone-1-1-101
Iphone-0-0-077
Iphone-1-2-185
Iphone-0-0-249
Iphone-0-2-213
Iphone-1-2-243
Iphone-1-2-109
Iphone-1-0-064
Iphone-1-0-010
Iphone-0-2-184
Iphone-0-0-132
Iphone-1-1-003
Iphone-0-2-146
Iphone-1-1-170
Iphone-0-1-138
Iphone-1-1-116
Iphone-0-1-102
Iphone-0-1-130
Iphone-1-2-138
Iphone-1-1-146
Iphone-0-0-100
Iphone-1-0-151
Iphone-1-0-232
Iphone-0-0-244
Iphone-0-1-084
Iphone-0-1-007
Iphone-0-2-214
Iphone-1-2-232
Iphone-1-1-197
Iphone-1-0-001
Iphone-1-1-071
Iphone-0-0-090
Iphone-1-1-053
Iphone-0-0-247
Iphone-0-0-117
Iphone-0-2-147
Iphone-0-2-242
Iphone-1-1-105
Iphone-1-0-152
Iphone-0-1-008
Iphone-1-0-177
Iphone-0-2-087
Iphone-0-2-001
Iphone-1-1-125
Iphone-0-2-003
Iphone-1-1-184
Iphone-0-1-225
Iphone-1-2-004
Iphone-1-0-143
Iphone-0-1-070
Iphone-0-1-010
Iphone-1-1-134
Iphone-0-0-053
Iphone-0-2-092
Iphone-1-1-058
Iphone-1-0-222
Iphone-1-1-209
Iphone-1-2-119
Iphone-1-0-195
Iphone-0-0-223
Iphone-1-0-071
Iphone-1-1-230
Iphone-0-0-195
Iphone-0-1-145
Iphone-1-0-212
Iphone-1-0-163
Iphone-1-0-134
Iphone-0-0-125
Iphone-0-0-227
Iphone-0-2-190
Iphone-0-1-076
Iphone-1-2-063
Iphone-0-2-052
Iphone-1-1-227
Iphone-0-1-148
Iphone-1-1-087
Iphone-0-2-236
Iphone-0-2-181
Iphone-0-1-162
Iphone-0-2-208
Iphone-0-2-100
Iphone-1-1-115
Iphone-1-2-213
Iphone-1-0-099
Iphone-1-2-096
Iphone-0-1-166
Iphone-0-0-057
Iphone-0-2-073
Iphone-0-1-193
Iphone-0-2-231
Iphone-1-2-216
Iphone-1-2-100
Iphone-0-1-161
Iphone-1-1-223
Iphone-0-0-211
Iphone-0-1-210
Iphone-0-1-245
Iphone-0-2-171
Iphone-0-1-203
Iphone-1-1-167
Iphone-1-0-070
Iphone-1-1-155
Iphone-0-2-204
Iphone-1-2-139
Iphone-0-1-095
Iphone-0-2-191
Iphone-1-2-233
Iphone-0-1-169
Iphone-1-1-068
Iphone-0-2-148
Iphone-1-0-182
Iphone-1-2-174
Iphone-1-2-230
Iphone-0-0-147
Iphone-0-2-161
Iphone-0-2-110
Iphone-0-2-084
Iphone-0-1-142
Iphone-0-1-094
Iphone-1-1-208
Iphone-1-1-121
Iphone-1-1-057
Iphone-0-2-167
Iphone-1-0-115
Iphone-1-0-249
Iphone-0-0-105
Iphone-1-0-006
Iphone-1-1-158
Iphone-0-0-218
Iphone-1-0-141
Iphone-1-2-051
Iphone-1-2-202
Iphone-0-1-072
Iphone-1-2-149
Iphone-1-1-136
Iphone-0-1-228
Iphone-1-1-127
Iphone-0-2-154
Iphone-0-1-160
Iphone-0-0-153
Iphone-1-1-204
Iphone-0-2-123
Iphone-0-0-140
Iphone-1-1-182
Iphone-0-0-071
Iphone-0-2-057
Iphone-0-0-207
Iphone-0-0-060
Iphone-0-0-167
Iphone-1-2-053
Iphone-0-1-123
Iphone-1-0-058
Iphone-0-1-232
Iphone-0-0-250
Iphone-0-1-091
Iphone-0-1-163
Iphone-0-0-216
Iphone-1-0-165
Iphone-1-1-189
Iphone-0-0-081
Iphone-0-2-182
Iphone-1-2-112
Iphone-0-2-096
Iphone-0-2-155
Iphone-0-1-177
Iphone-0-2-177
Iphone-1-1-114
Iphone-1-2-161
Iphone-1-2-197
Iphone-0-1-116
Iphone-1-0-237
Iphone-0-1-133
Iphone-0-0-222
Iphone-1-2-074
Iphone-0-2-193
Iphone-1-2-198
Iphone-0-2-168
Iphone-0-1-146
Iphone-1-1-185
Iphone-1-1-178
Iphone-1-2-147
Iphone-1-0-133
Iphone-0-1-071
Iphone-1-2-154
Iphone-0-0-246
Iphone-1-1-216
Iphone-0-0-198
Iphone-1-1-212
Iphone-0-1-195
Iphone-0-2-185
Iphone-0-1-057
Iphone-0-0-184
Iphone-0-2-113
Iphone-0-2-211
Iphone-0-1-233
Iphone-0-1-147
Iphone-0-2-086
Iphone-1-2-155
Iphone-1-1-220
Iphone-0-0-109
Iphone-1-2-162
Iphone-0-1-098
Iphone-0-0-159
Iphone-1-0-236
Iphone-0-1-222
Iphone-1-1-237
Iphone-0-1-103
Iphone-0-2-117
Iphone-1-1-107
Iphone-0-1-172
Iphone-1-1-052
Iphone-1-0-211
Iphone-1-2-170
Iphone-1-0-196
Iphone-1-2-101
Iphone-0-1-124
Iphone-0-0-166
Iphone-0-0-145
Iphone-1-1-193
Iphone-1-0-181
Iphone-0-1-077
Iphone-0-2-082
Iphone-0-2-144
Iphone-1-1-149
Iphone-0-0-152
Iphone-0-1-126
Iphone-0-2-053
Iphone-1-2-142
Iphone-0-0-241
Iphone-1-0-097
Iphone-1-2-124
Iphone-1-1-093
Iphone-1-1-126
Iphone-1-0-096
Iphone-1-0-205
Iphone-0-2-162
Iphone-1-2-120
Iphone-0-2-227
Iphone-0-1-065
Iphone-0-0-208
Iphone-1-2-114
Iphone-1-1-200
Iphone-0-1-151
Iphone-0-1-156
Iphone-0-1-242
Iphone-0-0-146
Iphone-1-2-010
Iphone-1-0-243
Iphone-1-1-084
Iphone-0-0-217
Iphone-0-1-190
Iphone-0-1-208
Iphone-1-1-070
Iphone-1-0-132
Iphone-1-2-221
Iphone-1-0-250
Iphone-1-2-137
Iphone-1-0-051
Iphone-0-2-090
Iphone-1-0-239
Iphone-1-1-199
Iphone-1-2-090
Iphone-0-1-221
Iphone-0-0-070
Iphone-0-0-062
Iphone-0-2-216
Iphone-1-0-127
Iphone-0-0-130
Iphone-1-0-190
Iphone-1-2-236
Iphone-0-2-097
Iphone-0-2-219
Iphone-1-2-214
Iphone-0-2-199
Iphone-0-1-101
Iphone-1-1-156
Iphone-1-1-065
Iphone-1-2-220
Iphone-0-0-232
Iphone-0-2-103
Iphone-1-0-085
Iphone-1-0-106
Iphone-1-1-080
Iphone-1-1-172
Iphone-1-0-157
Iphone-1-2-211
Iphone-0-0-052
Iphone-1-0-221
Iphone-1-0-053
Iphone-0-0-219
Iphone-1-1-160
Iphone-1-0-206
Iphone-0-0-067
Iphone-1-0-113
Iphone-0-2-061
Iphone-0-2-234
Iphone-0-0-098
Iphone-1-2-193
Iphone-1-0-124
Iphone-1-1-177
Iphone-0-0-148
Iphone-0-2-126
Iphone-1-0-148
Iphone-0-1-165
Iphone-1-0-240
Iphone-1-0-125
Iphone-1-2-176
Iphone-1-2-158
Iphone-0-1-246
Iphone-1-0-094
Iphone-0-2-238
Iphone-1-1-186
Iphone-1-2-065
Iphone-0-0-193
Iphone-1-1-152
Iphone-1-2-134
Iphone-0-1-122
Iphone-0-1-067
Iphone-1-0-209
Iphone-1-1-097
Iphone-0-2-122
Iphone-1-1-110
Iphone-1-1-203
Iphone-1-2-238
Iphone-0-2-109
Iphone-0-1-058
Iphone-0-0-116
Iphone-0-2-159
Iphone-1-2-103
Iphone-0-0-142
Iphone-0-0-238
Iphone-0-1-115
Iphone-0-0-096
Iphone-1-1-111
Iphone-1-2-081
Iphone-1-2-069
Iphone-0-1-131
Iphone-0-1-171
Iphone-0-1-194
Iphone-1-1-061
Iphone-0-1-184
Iphone-1-2-129
Iphone-1-2-091
Iphone-0-2-169
Iphone-0-0-099
Iphone-0-0-231
Iphone-0-2-178
Iphone-1-1-161
Iphone-0-1-212
Iphone-1-2-088
Iphone-0-2-006
Iphone-1-0-242
Iphone-0-2-104
Iphone-0-1-121
Iphone-0-2-060
Iphone-1-0-174
Iphone-1-0-142
Iphone-0-1-183
Iphone-0-2-095
Iphone-1-1-240
Iphone-0-0-175
Iphone-1-2-222
Iphone-0-0-004
Iphone-1-0-167
Iphone-1-1-214
Iphone-0-2-005
Iphone-1-0-223
Iphone-0-0-171
Iphone-0-1-113
Iphone-1-2-171
Iphone-0-1-090
Iphone-1-2-231
Iphone-1-2-093
Iphone-1-0-235
Iphone-0-0-173
Iphone-0-0-110
Iphone-1-1-173
Iphone-1-0-155
Iphone-0-1-002
Iphone-1-1-120
Iphone-1-0-194
Iphone-0-2-215
Iphone-0-0-177
Iphone-1-1-192
Iphone-0-2-054
Iphone-1-1-137
Iphone-1-1-113
Iphone-1-0-056
Iphone-0-2-009
Iphone-1-2-204
Iphone-1-0-227
Iphone-0-1-108
Iphone-0-0-165
Iphone-1-1-194
Iphone-1-2-110
Iphone-1-1-117
Iphone-0-1-224
Iphone-1-0-170
Iphone-1-0-110
Iphone-0-1-139
Iphone-1-2-122
Iphone-0-0-121
Iphone-1-2-084
Iphone-0-2-140
Iphone-1-2-066
Iphone-1-2-125
Iphone-1-2-201
Iphone-1-2-237
Iphone-1-0-082
Iphone-0-0-076
Iphone-0-0-204
Iphone-0-2-089
Iphone-1-0-076
Iphone-0-1-174
Iphone-0-0-006
Iphone-1-2-057
Iphone-1-2-175
Iphone-1-0-095
Iphone-0-2-237
Iphone-1-1-211
Iphone-0-0-186
Iphone-1-1-060
Iphone-1-1-089
Iphone-0-1-060
Iphone-0-2-139
Iphone-1-0-087
Iphone-0-2-222
Iphone-0-1-179
Iphone-1-2-224
Iphone-1-1-243
Iphone-1-0-003
Iphone-0-0-212
Iphone-0-1-157
Iphone-0-1-219
Iphone-0-1-144
Iphone-1-0-126
Iphone-1-1-066
Iphone-0-0-179
Iphone-0-1-247
Iphone-0-0-209
Iphone-1-2-159
Iphone-1-0-164
Iphone-0-1-112
Iphone-1-0-093
Iphone-0-1-093
Iphone-1-0-119
Iphone-1-2-123
Iphone-0-2-105
Iphone-1-1-169
Iphone-0-0-139
Iphone-1-2-007
Iphone-1-1-245
Iphone-0-1-237
Iphone-1-0-121
Iphone-1-1-157
Iphone-0-0-091
Iphone-0-1-227
Iphone-1-2-143
Iphone-1-2-094
Iphone-1-1-150
Iphone-0-2-217
Iphone-1-0-207
Iphone-1-0-067
Iphone-0-2-080
Iphone-1-0-061
Iphone-1-0-092
Iphone-1-0-200
Iphone-0-2-138
Iphone-1-1-163
Iphone-1-0-204
Iphone-1-2-078
Iphone-0-1-248
Iphone-1-1-074
Iphone-1-1-128
Iphone-1-1-239
Iphone-1-2-087
Iphone-0-2-106
Iphone-0-2-240
Iphone-0-2-063
Iphone-0-0-234
Iphone-1-2-179
Iphone-0-2-101
Iphone-1-1-076
Iphone-0-2-249
Iphone-1-1-151
Iphone-1-1-085
Iphone-0-2-194
Iphone-0-0-194
Iphone-1-2-239
Iphone-0-1-141
Iphone-1-2-006
Iphone-0-0-188
Iphone-1-0-175
Iphone-1-0-208
Iphone-1-0-090
Iphone-0-2-196
Iphone-0-1-244
Iphone-0-0-161
Iphone-1-1-135
Iphone-1-1-124
Iphone-1-1-010
Iphone-1-2-054
Iphone-0-1-128
Iphone-1-1-109
Iphone-0-1-213
Iphone-0-0-178
Iphone-1-1-075
Iphone-0-1-100
Iphone-1-2-150
Iphone-0-0-220
Iphone-1-0-140
Iphone-1-2-217
Iphone-1-2-208
Iphone-1-2-104
Iphone-1-0-198
Iphone-0-0-079
Iphone-1-0-210
Iphone-1-1-131
Iphone-1-0-122
Iphone-1-0-055
Iphone-0-2-247
Iphone-0-1-089
Iphone-0-2-132
Iphone-0-0-095
Iphone-1-1-063
Iphone-1-1-153
Iphone-1-0-080
Iphone-1-1-001
Iphone-0-2-250
Iphone-0-1-063
Iphone-0-0-086
Iphone-0-0-007
Iphone-1-1-171
Iphone-0-2-220
Iphone-0-0-189
Iphone-1-1-072
Iphone-0-0-224
Iphone-0-2-007
Iphone-0-1-073
Iphone-1-0-202
Iphone-0-0-106
Iphone-1-2-227
Iphone-1-1-099
Iphone-1-1-175
Iphone-0-2-150
Iphone-1-2-085
Iphone-0-0-149
Iphone-1-1-210
Iphone-0-0-203
Iphone-1-2-145
Iphone-0-0-239
Iphone-0-0-003
Iphone-1-1-092
Iphone-0-1-159
Iphone-1-0-009
Iphone-1-1-221
Iphone-0-1-003
Iphone-1-1-008
Iphone-0-1-087
Iphone-0-1-240
Iphone-0-2-202
Iphone-1-0-188
Iphone-1-0-180
Iphone-0-2-172
Iphone-1-1-224
Iphone-1-0-117
Iphone-1-2-209
Iphone-1-0-066
Iphone-0-0-114
Iphone-1-1-096
Iphone-1-2-130
Iphone-0-1-055
Iphone-0-1-127
Iphone-1-2-226
Iphone-0-0-236
Iphone-1-1-181
Iphone-1-1-176
Iphone-0-0-120
Iphone-0-0-169
Iphone-0-1-005
Iphone-0-2-136
Iphone-0-1-153
Iphone-1-1-242
Iphone-0-0-196
Iphone-1-1-225
Iphone-1-1-112
Iphone-1-1-147
Iphone-0-0-107
Iphone-0-2-243
Iphone-0-0-061
Iphone-1-2-178
Iphone-0-2-002
Iphone-1-2-146
Iphone-1-0-218
Iphone-0-2-166
Iphone-0-0-064
Iphone-1-2-215
Iphone-0-0-097
Iphone-1-1-232
Iphone-0-1-249
Iphone-0-0-129
Iphone-1-1-090
Iphone-1-1-103
Iphone-1-2-089
Iphone-0-2-099
Iphone-1-2-218
Iphone-0-1-006
Iphone-1-0-220
Iphone-1-0-098
Iphone-0-1-186
Iphone-0-2-195
Iphone-1-2-152
Iphone-1-2-212
Iphone-0-2-156
Iphone-0-1-207
Iphone-1-1-091
Iphone-0-2-108
Iphone-1-0-063
Iphone-1-2-095
Iphone-1-0-158
Iphone-0-2-010
Iphone-1-2-060
Iphone-1-0-128
Iphone-0-1-158
Iphone-0-2-079
Iphone-1-1-056
Iphone-1-0-226
Iphone-1-0-135
Iphone-1-0-111
Iphone-1-0-112
Iphone-1-1-248
Iphone-1-0-147
Iphone-1-1-129
Iphone-0-0-137
Iphone-0-1-009
Iphone-1-0-225
Iphone-1-0-162
Iphone-1-0-231
Iphone-1-0-144
Iphone-0-2-067
Iphone-0-1-235
Iphone-1-0-059
Iphone-1-2-099
Iphone-1-1-100
Iphone-1-2-105
Iphone-1-2-001
Iphone-1-2-108
Iphone-0-2-004
Iphone-1-0-156
Iphone-0-1-136
Iphone-1-2-071
Iphone-1-1-059
Iphone-1-2-200
Iphone-0-2-119
Iphone-0-0-162
Iphone-0-2-225
Iphone-1-2-228
Iphone-1-0-245
Iphone-1-1-234
Iphone-1-2-133
Iphone-1-2-148
Iphone-0-0-002
Iphone-1-2-247
Iphone-0-2-233
Iphone-1-1-195
Iphone-1-0-102
Iphone-1-0-005
Iphone-0-1-234
Iphone-0-2-111
Iphone-0-2-180
Iphone-1-1-168
Iphone-1-0-101
Iphone-0-1-096
Iphone-1-0-241
Iphone-1-2-165
Iphone-0-1-216
Iphone-1-2-107
Iphone-0-2-179
Iphone-1-0-100
Iphone-1-2-184
Iphone-1-0-081
Iphone-0-2-210
Iphone-1-1-088
Iphone-1-1-231
Iphone-1-0-116
Iphone-0-2-107
Iphone-0-1-230
Iphone-1-1-180
Iphone-1-0-159
Iphone-1-1-183
Iphone-1-2-055
Iphone-1-1-166
Iphone-1-1-222
Iphone-0-0-093
Iphone-0-1-185
Iphone-1-2-189
Iphone-0-2-088
Iphone-1-2-195
Iphone-0-0-101
Iphone-0-2-133
Iphone-1-2-157
Iphone-0-0-242
Iphone-1-0-246
Iphone-0-2-071
Iphone-1-0-214
Iphone-1-0-074
Iphone-1-0-091
Iphone-1-2-183
Iphone-1-0-068
Iphone-0-1-205
Iphone-0-0-119
Iphone-1-2-062
Iphone-0-2-066
Iphone-1-0-075
Iphone-0-2-059
Iphone-0-2-246
Iphone-0-0-200
Iphone-1-1-067
Iphone-1-2-117
Iphone-0-2-077
Iphone-1-2-223
Iphone-0-1-189
Iphone-1-0-104
Iphone-0-2-094
Iphone-0-1-092
Iphone-1-2-182
Iphone-1-0-186
Iphone-0-2-163
Iphone-1-1-101
Iphone-0-0-077
Iphone-0-2-213
Iphone-1-2-243
Iphone-1-2-109
Iphone-0-0-132
Iphone-1-1-003
Iphone-0-1-138
Iphone-0-1-102
Iphone-0-1-130
Iphone-1-2-138
Iphone-1-0-151
Iphone-0-0-244
Iphone-0-1-084
Iphone-0-1-007
Iphone-0-2-214
Iphone-1-1-197
Iphone-1-1-071
Iphone-0-0-247
Iphone-1-0-152
Iphone-1-0-177
Iphone-0-2-087
Iphone-0-2-001
Iphone-1-1-125
Iphone-0-2-003
Iphone-1-2-004
Iphone-1-0-143
Iphone-0-1-070
Iphone-0-1-010
Iphone-1-1-134
Iphone-0-0-053
Iphone-0-2-092
Iphone-1-1-058
Iphone-1-1-209
Iphone-1-0-195
Iphone-1-1-230
Iphone-0-0-195
Iphone-0-1-145
Iphone-1-0-134
Iphone-0-2-190
Iphone-0-1-076
Iphone-1-1-227
Iphone-0-1-148
Iphone-0-2-236
Iphone-1-1-115
Iphone-1-1-145
Iphone-1-2-052
Iphone-0-1-191
Iphone-1-2-229
Iphone-1-1-098
Iphone-0-0-199
Iphone-0-1-181
Iphone-1-1-215
Iphone-0-0-066
Iphone-1-2-075
Iphone-0-1-215
Iphone-0-2-209
Iphone-0-0-156
Iphone-1-1-154
Iphone-0-0-010
Iphone-1-1-162
Iphone-0-0-187
Iphone-0-2-074
Iphone-0-2-115
Iphone-1-0-238
Iphone-1-2-082
Iphone-1-0-215
Iphone-1-2-113
Iphone-1-1-201
Iphone-0-1-081
Iphone-1-0-161
Iphone-0-1-053
Iphone-0-2-157
Iphone-0-0-226
Iphone-0-2-218
Iphone-1-0-146
Iphone-0-2-085
Iphone-0-1-178
Iphone-1-0-229
Iphone-0-2-198
Iphone-0-0-113
Iphone-0-1-114
Iphone-1-0-184
Iphone-0-1-106
Iphone-0-1-206
Iphone-1-2-172
Iphone-0-2-137
Iphone-0-0-072
Iphone-1-1-236
Iphone-1-0-173
Iphone-1-2-056
Iphone-0-1-137
Iphone-0-0-131
Iphone-0-0-245
Iphone-0-2-170
Iphone-0-0-183
Iphone-0-2-064
Iphone-1-1-108
Iphone-1-2-003
Iphone-0-2-200
Iphone-1-2-169
Iphone-1-2-118
Iphone-1-2-098
Iphone-1-2-068
Iphone-1-2-140
Iphone-1-2-168
Iphone-1-1-069
Iphone-1-0-187
Iphone-0-2-175
Iphone-0-1-192
Iphone-1-2-190
Iphone-1-0-228
Iphone-1-2-249
Iphone-1-2-131
Iphone-1-2-132
Iphone-0-0-082
Iphone-0-0-123
Iphone-1-2-167
Iphone-0-1-170
Iphone-1-1-247
Iphone-0-1-229
Iphone-1-2-086
Iphone-1-0-169
Iphone-0-2-121
Iphone-0-0-089
Iphone-0-2-241
Iphone-1-0-072
Iphone-0-0-065
Iphone-0-1-149
Iphone-0-2-055
Iphone-1-2-144
Iphone-0-2-223
Iphone-0-1-075
Iphone-1-1-004
Iphone-1-1-233
Iphone-1-2-083
Iphone-1-2-163
Iphone-0-2-083
Iphone-0-1-117
Iphone-0-2-124
Iphone-1-2-173
Iphone-0-1-211
Iphone-0-2-158
Iphone-1-2-061
Iphone-0-2-160
Iphone-0-2-091
Iphone-1-2-127
Iphone-1-0-230
Iphone-0-2-062
Iphone-1-0-130
Iphone-0-1-175
Iphone-0-0-118
Iphone-0-1-061
Iphone-0-2-114
Iphone-1-1-190
Iphone-1-0-088
Iphone-1-2-005
Iphone-0-1-069
Iphone-1-2-234
Iphone-0-0-074
Iphone-1-1-005
Iphone-0-2-245
Iphone-0-2-051
Iphone-1-0-054
Iphone-0-0-008
Iphone-1-2-151
Iphone-1-2-156
Iphone-1-1-229
Iphone-1-0-172
Iphone-0-1-226
Iphone-0-0-157
Iphone-0-0-111
Iphone-0-0-005
Iphone-1-2-136
Iphone-1-2-180
Iphone-0-2-186
Iphone-0-2-221
Iphone-1-2-121
Iphone-1-0-160
Iphone-0-2-235
Iphone-1-0-131
Iphone-0-1-078
Iphone-0-0-185
Iphone-1-2-077
Iphone-1-1-188
Iphone-0-2-075
Iphone-1-2-064
Iphone-0-2-078
Iphone-0-1-204
Iphone-0-1-243
Iphone-1-0-079
Iphone-1-2-181
Iphone-0-1-250
Iphone-0-1-154
Iphone-1-1-143
Iphone-1-0-120
Iphone-1-2-111
Iphone-0-2-226
Iphone-1-1-244
Iphone-1-2-248
Iphone-1-2-199
Iphone-0-0-180
Iphone-0-0-235
Iphone-1-2-207
Iphone-0-0-150
Iphone-1-2-206
Iphone-0-1-134
Iphone-0-1-105
Iphone-0-2-127
Iphone-0-1-056
Iphone-1-1-133
Iphone-0-0-221
Iphone-0-2-141
Iphone-1-2-250
Iphone-0-1-176
Iphone-0-1-241
Iphone-0-0-233
Iphone-0-0-122
Iphone-1-1-054
Iphone-0-0-213
Iphone-1-0-179
Iphone-1-1-205
Iphone-1-1-159
Iphone-0-1-223
Iphone-1-2-188
Iphone-0-1-085
Iphone-0-2-120
Iphone-0-2-098
Iphone-0-0-102
Iphone-1-2-080
Iphone-1-1-079
Iphone-0-1-132
Iphone-0-1-155
Iphone-1-1-191
Iphone-1-2-244
Iphone-0-1-068
Iphone-1-1-007
Iphone-1-0-219
Iphone-0-0-190
Iphone-0-0-225
Iphone-0-1-150
Iphone-0-0-126
Iphone-1-0-201
Iphone-0-0-141
Iphone-0-2-224
Iphone-0-2-183
Iphone-0-1-083
Iphone-1-1-006
Iphone-0-2-070
Iphone-1-0-129
Iphone-1-1-198
Iphone-0-2-112
Iphone-0-0-094
Iphone-1-0-189
Iphone-0-0-229
Iphone-0-0-009
Iphone-0-0-056
Iphone-0-1-217
Iphone-0-0-063
Iphone-1-2-072
Iphone-1-2-240
Iphone-0-0-108
Iphone-1-1-142
Iphone-0-0-136
Iphone-1-1-073
Iphone-0-2-102
Iphone-0-2-149
Iphone-0-2-207
Iphone-1-0-233
Iphone-1-0-086
Iphone-0-0-058
Iphone-0-0-158
Iphone-1-1-148
Iphone-1-2-186
Iphone-0-0-138
Iphone-0-0-128
Iphone-0-1-197
Iphone-1-0-069
Iphone-1-0-123
Iphone-0-0-155
Iphone-1-0-060
Iphone-1-2-135
Iphone-1-2-219
Iphone-0-2-174
Iphone-1-2-059
Iphone-0-2-081
Iphone-1-1-206
Iphone-0-1-238
Iphone-0-0-124
Iphone-1-1-226
Iphone-0-2-197
Iphone-1-2-164
Iphone-0-2-118
Iphone-0-2-072
Iphone-1-2-160
Iphone-0-0-160
Iphone-1-1-064
Iphone-1-1-083
Iphone-0-0-230
Iphone-1-1-009
Iphone-0-2-229
Iphone-1-0-084
Iphone-1-2-210
Iphone-0-1-004
Iphone-1-0-217
Iphone-0-1-062
Iphone-0-0-192
Iphone-0-1-059
Iphone-0-1-054
Iphone-0-1-188
Iphone-1-2-191
Iphone-1-1-139
Iphone-0-1-110
Iphone-0-1-097
Iphone-0-1-164
Iphone-1-2-070
Iphone-1-0-166
Iphone-1-1-144
Iphone-1-1-165
Iphone-0-0-168
Iphone-0-2-230
Iphone-0-1-231
Iphone-1-1-164
Iphone-1-2-126
Iphone-1-0-083
Iphone-1-0-118
Iphone-1-2-192
Iphone-1-1-235
Iphone-0-0-084
Iphone-0-0-051
Iphone-1-0-136
Iphone-0-0-174
Iphone-0-2-068
Iphone-1-1-078
Iphone-1-2-246
Iphone-0-0-176
Iphone-1-2-115
Iphone-1-0-149
Iphone-1-2-153
Iphone-0-0-205
Iphone-1-0-150
Iphone-0-0-135
Iphone-0-1-135
Iphone-1-0-073
Iphone-1-1-249
Iphone-0-1-119
Iphone-0-2-008
Iphone-1-2-225
Iphone-1-1-118
Iphone-1-1-174
Iphone-0-0-197
Iphone-0-1-099
Iphone-0-1-080
Iphone-0-2-188
Iphone-1-0-105
Iphone-0-0-243
Iphone-0-1-129
Iphone-0-2-203
Iphone-1-0-192
Iphone-1-1-138
Iphone-1-2-166
Iphone-0-1-064
Iphone-1-0-004
Iphone-0-0-085
Iphone-0-2-069
Iphone-1-1-179
Iphone-0-2-065
Iphone-1-0-176
Iphone-1-2-106
Iphone-0-0-181
Iphone-0-2-151
Iphone-0-2-128
Iphone-0-1-236
Iphone-0-1-214
Iphone-1-0-168
Iphone-0-0-191
Iphone-1-0-154
Iphone-0-2-129
Iphone-0-0-092
Iphone-0-1-218
Iphone-0-2-206
Iphone-1-2-067
Iphone-0-1-196
Iphone-1-0-108
Iphone-0-2-056
Iphone-0-1-051
Iphone-0-1-107
Iphone-0-2-076
Iphone-1-1-140
Iphone-0-0-201
Iphone-0-1-200
Iphone-0-0-073
Iphone-0-0-080
Iphone-0-2-232
Iphone-0-0-054
Iphone-1-1-104
Iphone-0-2-205
Iphone-0-2-125
Iphone-1-0-062
Iphone-1-0-114
Iphone-0-2-143
Iphone-1-2-058
Iphone-0-1-182
Iphone-1-0-145
Iphone-0-0-237
Iphone-0-0-088
Iphone-1-1-077
Iphone-1-0-007
Iphone-0-0-154
Iphone-1-2-116
Iphone-1-0-138
Iphone-0-0-144
Iphone-0-0-078
Iphone-1-0-193
Iphone-1-0-234
Iphone-0-2-187
Iphone-0-1-125
Iphone-1-2-009
Iphone-0-1-079
Iphone-1-0-057
Iphone-1-1-122
Iphone-1-1-219
Iphone-0-0-214
Iphone-0-0-240
Iphone-0-0-059
Iphone-0-0-163
Iphone-1-0-107
Iphone-0-2-131
Iphone-0-1-111
Iphone-1-1-218
Iphone-1-1-250
Iphone-1-0-248
Iphone-0-2-165
Iphone-0-1-052
Iphone-0-1-140
Iphone-0-0-172
Iphone-0-0-083
Iphone-1-1-132
Iphone-0-1-198
Iphone-0-1-001
Iphone-1-0-078
Iphone-1-2-097
Iphone-1-1-062
Iphone-0-1-167
Iphone-1-2-242
Iphone-1-2-141
Iphone-1-0-052
Iphone-1-2-128
Iphone-1-2-073
Iphone-1-0-203
Iphone-1-1-123
Iphone-1-2-008
Iphone-1-0-137
Iphone-0-0-001
Iphone-1-1-055
Iphone-0-1-152
Iphone-0-2-164
Iphone-1-2-102
Iphone-0-1-066
Iphone-1-0-191
Iphone-1-2-241
Iphone-1-2-002
Iphone-1-1-246
Iphone-1-0-008
Iphone-1-1-094
Iphone-1-2-203
Iphone-1-0-103
Iphone-1-1-238
Iphone-0-0-170
Iphone-1-1-051
Iphone-0-0-228
Iphone-1-2-076
Iphone-1-0-089
Iphone-0-0-143
Iphone-1-1-141
Iphone-0-1-199
Iphone-1-1-213
Iphone-1-1-217
Iphone-0-1-118
Iphone-0-0-215
Iphone-0-0-206
Iphone-1-1-102
Iphone-1-2-205
Iphone-1-2-245
Iphone-0-2-152
Iphone-0-0-055
Iphone-0-1-220
Iphone-1-1-130
Iphone-1-1-119
Iphone-0-0-127
Iphone-0-1-074
Iphone-0-1-104
Iphone-0-1-143
Iphone-0-2-058
Iphone-0-2-093
Iphone-1-1-106
Iphone-0-2-142
Iphone-1-0-178
Iphone-1-1-241
Iphone-0-0-112
Iphone-1-1-086
Iphone-1-2-177
Iphone-1-0-247
Iphone-1-0-213
Iphone-0-2-173
Iphone-1-1-228
Iphone-1-1-081
Iphone-1-0-077
Iphone-1-0-216
Iphone-0-1-209
Iphone-0-1-180
Iphone-1-0-153
Iphone-1-2-092
Iphone-1-0-183
Iphone-0-2-192
Iphone-0-2-176
Iphone-1-1-207
Iphone-0-2-153
Iphone-0-1-086
Iphone-0-1-109
Iphone-1-1-187
Iphone-0-0-104
Iphone-0-1-082
Iphone-1-0-185
Iphone-1-0-171
Iphone-0-0-182
Iphone-0-0-087
Iphone-1-2-187
Iphone-0-1-239
Iphone-1-0-109
Iphone-0-2-135
Iphone-0-2-239
Iphone-0-0-133
Iphone-0-0-069
Iphone-1-0-244
Iphone-1-1-196
Iphone-0-1-202
Iphone-1-0-197
Iphone-0-2-212
Iphone-0-1-173
Iphone-0-2-189
Iphone-0-0-164
Iphone-0-2-134
Iphone-1-2-235
Iphone-0-2-244
Iphone-1-0-065
Iphone-0-0-068
Iphone-1-1-002
Iphone-0-0-151
Iphone-0-0-103
Iphone-0-1-201
Iphone-1-0-002
Iphone-1-2-196
Iphone-0-0-134
Iphone-1-2-079
Iphone-1-2-194
Iphone-1-0-199
Iphone-0-2-201
Iphone-1-1-202
Iphone-1-0-224
Iphone-0-2-130
Iphone-0-2-248
Iphone-0-2-145
Iphone-0-0-075
Iphone-0-0-202
Iphone-0-1-120
Iphone-1-0-139
Iphone-0-0-115
Iphone-0-1-187
Iphone-1-1-082
Iphone-0-2-228
Iphone-0-1-088
Iphone-1-1-095
Iphone-0-0-210
Iphone-0-0-248
Iphone-0-1-168
Iphone-0-2-116
Iphone-1-2-185
Iphone-0-0-249
Iphone-1-0-064
Iphone-1-0-010
Iphone-0-2-184
Iphone-0-2-146
Iphone-1-1-170
Iphone-1-1-116
Iphone-1-1-146
Iphone-0-0-100
Iphone-1-0-232
Iphone-1-2-232
Iphone-1-0-001
Iphone-0-0-090
Iphone-1-1-053
Iphone-0-0-117
Iphone-0-2-147
Iphone-0-2-242
Iphone-1-1-105
Iphone-0-1-008
Iphone-1-1-184
Iphone-0-1-225
Iphone-1-0-222
Iphone-1-2-119
Iphone-0-0-223
Iphone-1-0-071
Iphone-1-0-212
Iphone-1-0-163
Iphone-0-0-125
Iphone-0-0-227
Iphone-1-2-063
Iphone-0-2-052
Iphone-1-1-087
Iphone-0-2-181
Iphone-0-1-162
Iphone-0-2-208
Iphone-0-2-100
Iphone-1-2-213
Iphone-1-0-099
